(kicad_symbol_lib
	(version 20231120)
	(generator "kicad_symbol_editor")
	(generator_version "8.0")
	(symbol "ATSAMV71Q21B-A"
		(exclude_from_sim no)
		(in_bom yes)
		(on_board yes)
		(property "Reference" "U"
			(at -22.86 88.9 0)
			(effects
				(font
					(size 1.27 1.27)
				)
			)
		)
		(property "Value" "ATSAMV71Q21B-A"
			(at -12.7 -88.9 0)
			(effects
				(font
					(size 1.27 1.27)
				)
			)
		)
		(property "Footprint" "Package_QFP:LQFP-144_20x20mm_P0.5mm"
			(at 35.56 88.9 0)
			(effects
				(font
					(size 1.27 1.27)
				)
				(hide yes)
			)
		)
		(property "Datasheet" "http://ww1.microchip.com/downloads/en/DeviceDoc/SAM-E70-S70-V70-V71-Family-Data-Sheet-DS60001527D.pdf"
			(at 0 0 0)
			(effects
				(font
					(size 1.27 1.27)
				)
				(hide yes)
			)
		)
		(property "Description" "SAM V71 Microchip SMART ARM Cortex-M7-based MCU, 2048K Flash, 384K SRAM, LQFP-144"
			(at 0 0 0)
			(effects
				(font
					(size 1.27 1.27)
				)
				(hide yes)
			)
		)
		(property "ki_keywords" "32-bit ARM Cortex-M7 MCU Microcontroller"
			(at 0 0 0)
			(effects
				(font
					(size 1.27 1.27)
				)
				(hide yes)
			)
		)
		(property "ki_fp_filters" "LQFP*20x20mm*P0.5mm*"
			(at 0 0 0)
			(effects
				(font
					(size 1.27 1.27)
				)
				(hide yes)
			)
		)
		(symbol "ATSAMV71Q21B-A_0_1"
			(rectangle
				(start 25.4 86.36)
				(end -25.4 -86.36)
				(stroke
					(width 0)
					(type default)
				)
				(fill
					(type background)
				)
			)
			(rectangle
				(start 35.56 86.36)
				(end 35.56 86.36)
				(stroke
					(width 0)
					(type default)
				)
				(fill
					(type none)
				)
			)
		)
		(symbol "ATSAMV71Q21B-A_1_1"
			(pin bidirectional line
				(at 30.48 -2.54 180)
				(length 5.08)
				(name "PD0"
					(effects
						(font
							(size 1.27 1.27)
						)
					)
				)
				(number "1"
					(effects
						(font
							(size 1.27 1.27)
						)
					)
				)
			)
			(pin bidirectional line
				(at -30.48 -43.18 0)
				(length 5.08)
				(name "PE3"
					(effects
						(font
							(size 1.27 1.27)
						)
					)
				)
				(number "10"
					(effects
						(font
							(size 1.27 1.27)
						)
					)
				)
			)
			(pin bidirectional line
				(at 30.48 40.64 180)
				(length 5.08)
				(name "PC16"
					(effects
						(font
							(size 1.27 1.27)
						)
					)
				)
				(number "100"
					(effects
						(font
							(size 1.27 1.27)
						)
					)
				)
			)
			(pin bidirectional line
				(at 30.48 -27.94 180)
				(length 5.08)
				(name "PD10"
					(effects
						(font
							(size 1.27 1.27)
						)
					)
				)
				(number "101"
					(effects
						(font
							(size 1.27 1.27)
						)
					)
				)
			)
			(pin bidirectional line
				(at -30.48 81.28 0)
				(length 5.08)
				(name "PA0"
					(effects
						(font
							(size 1.27 1.27)
						)
					)
				)
				(number "102"
					(effects
						(font
							(size 1.27 1.27)
						)
					)
				)
			)
			(pin bidirectional line
				(at 30.48 38.1 180)
				(length 5.08)
				(name "PC17"
					(effects
						(font
							(size 1.27 1.27)
						)
					)
				)
				(number "103"
					(effects
						(font
							(size 1.27 1.27)
						)
					)
				)
			)
			(pin input line
				(at -30.48 -71.12 0)
				(length 5.08)
				(name "JTAGSEL"
					(effects
						(font
							(size 1.27 1.27)
						)
					)
				)
				(number "104"
					(effects
						(font
							(size 1.27 1.27)
						)
					)
				)
			)
			(pin bidirectional line
				(at -30.48 -12.7 0)
				(length 5.08)
				(name "PB4"
					(effects
						(font
							(size 1.27 1.27)
						)
					)
				)
				(number "105"
					(effects
						(font
							(size 1.27 1.27)
						)
					)
				)
			)
			(pin bidirectional line
				(at 30.48 -40.64 180)
				(length 5.08)
				(name "PD15"
					(effects
						(font
							(size 1.27 1.27)
						)
					)
				)
				(number "106"
					(effects
						(font
							(size 1.27 1.27)
						)
					)
				)
			)
			(pin passive line
				(at -10.16 91.44 270)
				(length 5.08) hide
				(name "VDDCORE"
					(effects
						(font
							(size 1.27 1.27)
						)
					)
				)
				(number "107"
					(effects
						(font
							(size 1.27 1.27)
						)
					)
				)
			)
			(pin bidirectional line
				(at 30.48 -76.2 180)
				(length 5.08)
				(name "PD29"
					(effects
						(font
							(size 1.27 1.27)
						)
					)
				)
				(number "108"
					(effects
						(font
							(size 1.27 1.27)
						)
					)
				)
			)
			(pin bidirectional line
				(at -30.48 -15.24 0)
				(length 5.08)
				(name "PB5"
					(effects
						(font
							(size 1.27 1.27)
						)
					)
				)
				(number "109"
					(effects
						(font
							(size 1.27 1.27)
						)
					)
				)
			)
			(pin bidirectional line
				(at 30.48 81.28 180)
				(length 5.08)
				(name "PC0"
					(effects
						(font
							(size 1.27 1.27)
						)
					)
				)
				(number "11"
					(effects
						(font
							(size 1.27 1.27)
						)
					)
				)
			)
			(pin bidirectional line
				(at 30.48 -25.4 180)
				(length 5.08)
				(name "PD9"
					(effects
						(font
							(size 1.27 1.27)
						)
					)
				)
				(number "110"
					(effects
						(font
							(size 1.27 1.27)
						)
					)
				)
			)
			(pin bidirectional line
				(at 30.48 35.56 180)
				(length 5.08)
				(name "PC18"
					(effects
						(font
							(size 1.27 1.27)
						)
					)
				)
				(number "111"
					(effects
						(font
							(size 1.27 1.27)
						)
					)
				)
			)
			(pin bidirectional line
				(at -30.48 10.16 0)
				(length 5.08)
				(name "PA28"
					(effects
						(font
							(size 1.27 1.27)
						)
					)
				)
				(number "112"
					(effects
						(font
							(size 1.27 1.27)
						)
					)
				)
			)
			(pin bidirectional line
				(at 30.48 -22.86 180)
				(length 5.08)
				(name "PD8"
					(effects
						(font
							(size 1.27 1.27)
						)
					)
				)
				(number "113"
					(effects
						(font
							(size 1.27 1.27)
						)
					)
				)
			)
			(pin bidirectional line
				(at -30.48 66.04 0)
				(length 5.08)
				(name "PA6"
					(effects
						(font
							(size 1.27 1.27)
						)
					)
				)
				(number "114"
					(effects
						(font
							(size 1.27 1.27)
						)
					)
				)
			)
			(pin passive line
				(at 0 -91.44 90)
				(length 5.08) hide
				(name "GND"
					(effects
						(font
							(size 1.27 1.27)
						)
					)
				)
				(number "115"
					(effects
						(font
							(size 1.27 1.27)
						)
					)
				)
			)
			(pin bidirectional line
				(at -30.48 5.08 0)
				(length 5.08)
				(name "PA30"
					(effects
						(font
							(size 1.27 1.27)
						)
					)
				)
				(number "116"
					(effects
						(font
							(size 1.27 1.27)
						)
					)
				)
			)
			(pin bidirectional line
				(at 30.48 33.02 180)
				(length 5.08)
				(name "PC19"
					(effects
						(font
							(size 1.27 1.27)
						)
					)
				)
				(number "117"
					(effects
						(font
							(size 1.27 1.27)
						)
					)
				)
			)
			(pin bidirectional line
				(at -30.48 2.54 0)
				(length 5.08)
				(name "PA31"
					(effects
						(font
							(size 1.27 1.27)
						)
					)
				)
				(number "118"
					(effects
						(font
							(size 1.27 1.27)
						)
					)
				)
			)
			(pin bidirectional line
				(at 30.48 -20.32 180)
				(length 5.08)
				(name "PD7"
					(effects
						(font
							(size 1.27 1.27)
						)
					)
				)
				(number "119"
					(effects
						(font
							(size 1.27 1.27)
						)
					)
				)
			)
			(pin bidirectional line
				(at 30.48 12.7 180)
				(length 5.08)
				(name "PC27"
					(effects
						(font
							(size 1.27 1.27)
						)
					)
				)
				(number "12"
					(effects
						(font
							(size 1.27 1.27)
						)
					)
				)
			)
			(pin bidirectional line
				(at 30.48 30.48 180)
				(length 5.08)
				(name "PC20"
					(effects
						(font
							(size 1.27 1.27)
						)
					)
				)
				(number "120"
					(effects
						(font
							(size 1.27 1.27)
						)
					)
				)
			)
			(pin bidirectional line
				(at 30.48 -17.78 180)
				(length 5.08)
				(name "PD6"
					(effects
						(font
							(size 1.27 1.27)
						)
					)
				)
				(number "121"
					(effects
						(font
							(size 1.27 1.27)
						)
					)
				)
			)
			(pin bidirectional line
				(at 30.48 27.94 180)
				(length 5.08)
				(name "PC21"
					(effects
						(font
							(size 1.27 1.27)
						)
					)
				)
				(number "122"
					(effects
						(font
							(size 1.27 1.27)
						)
					)
				)
			)
			(pin power_in line
				(at 5.08 91.44 270)
				(length 5.08)
				(name "VDDPLL"
					(effects
						(font
							(size 1.27 1.27)
						)
					)
				)
				(number "123"
					(effects
						(font
							(size 1.27 1.27)
						)
					)
				)
			)
			(pin bidirectional line
				(at 30.48 25.4 180)
				(length 5.08)
				(name "PC22"
					(effects
						(font
							(size 1.27 1.27)
						)
					)
				)
				(number "124"
					(effects
						(font
							(size 1.27 1.27)
						)
					)
				)
			)
			(pin bidirectional line
				(at 30.48 -15.24 180)
				(length 5.08)
				(name "PD5"
					(effects
						(font
							(size 1.27 1.27)
						)
					)
				)
				(number "125"
					(effects
						(font
							(size 1.27 1.27)
						)
					)
				)
			)
			(pin bidirectional line
				(at 30.48 -12.7 180)
				(length 5.08)
				(name "PD4"
					(effects
						(font
							(size 1.27 1.27)
						)
					)
				)
				(number "126"
					(effects
						(font
							(size 1.27 1.27)
						)
					)
				)
			)
			(pin bidirectional line
				(at 30.48 22.86 180)
				(length 5.08)
				(name "PC23"
					(effects
						(font
							(size 1.27 1.27)
						)
					)
				)
				(number "127"
					(effects
						(font
							(size 1.27 1.27)
						)
					)
				)
			)
			(pin bidirectional line
				(at 30.48 -10.16 180)
				(length 5.08)
				(name "PD3"
					(effects
						(font
							(size 1.27 1.27)
						)
					)
				)
				(number "128"
					(effects
						(font
							(size 1.27 1.27)
						)
					)
				)
			)
			(pin bidirectional line
				(at -30.48 7.62 0)
				(length 5.08)
				(name "PA29"
					(effects
						(font
							(size 1.27 1.27)
						)
					)
				)
				(number "129"
					(effects
						(font
							(size 1.27 1.27)
						)
					)
				)
			)
			(pin bidirectional line
				(at 30.48 15.24 180)
				(length 5.08)
				(name "PC26"
					(effects
						(font
							(size 1.27 1.27)
						)
					)
				)
				(number "13"
					(effects
						(font
							(size 1.27 1.27)
						)
					)
				)
			)
			(pin bidirectional line
				(at 30.48 20.32 180)
				(length 5.08)
				(name "PC24"
					(effects
						(font
							(size 1.27 1.27)
						)
					)
				)
				(number "130"
					(effects
						(font
							(size 1.27 1.27)
						)
					)
				)
			)
			(pin bidirectional line
				(at 30.48 -7.62 180)
				(length 5.08)
				(name "PD2"
					(effects
						(font
							(size 1.27 1.27)
						)
					)
				)
				(number "131"
					(effects
						(font
							(size 1.27 1.27)
						)
					)
				)
			)
			(pin bidirectional line
				(at 30.48 -5.08 180)
				(length 5.08)
				(name "PD1"
					(effects
						(font
							(size 1.27 1.27)
						)
					)
				)
				(number "132"
					(effects
						(font
							(size 1.27 1.27)
						)
					)
				)
			)
			(pin bidirectional line
				(at 30.48 17.78 180)
				(length 5.08)
				(name "PC25"
					(effects
						(font
							(size 1.27 1.27)
						)
					)
				)
				(number "133"
					(effects
						(font
							(size 1.27 1.27)
						)
					)
				)
			)
			(pin power_in line
				(at 10.16 91.44 270)
				(length 5.08)
				(name "VDDUTMII"
					(effects
						(font
							(size 1.27 1.27)
						)
					)
				)
				(number "134"
					(effects
						(font
							(size 1.27 1.27)
						)
					)
				)
			)
			(pin passive line
				(at 0 -91.44 90)
				(length 5.08) hide
				(name "GND"
					(effects
						(font
							(size 1.27 1.27)
						)
					)
				)
				(number "135"
					(effects
						(font
							(size 1.27 1.27)
						)
					)
				)
			)
			(pin bidirectional line
				(at -30.48 -55.88 0)
				(length 5.08)
				(name "HSDM"
					(effects
						(font
							(size 1.27 1.27)
						)
					)
				)
				(number "136"
					(effects
						(font
							(size 1.27 1.27)
						)
					)
				)
			)
			(pin bidirectional line
				(at -30.48 -53.34 0)
				(length 5.08)
				(name "HSDP"
					(effects
						(font
							(size 1.27 1.27)
						)
					)
				)
				(number "137"
					(effects
						(font
							(size 1.27 1.27)
						)
					)
				)
			)
			(pin passive line
				(at 0 -91.44 90)
				(length 5.08) hide
				(name "GND"
					(effects
						(font
							(size 1.27 1.27)
						)
					)
				)
				(number "138"
					(effects
						(font
							(size 1.27 1.27)
						)
					)
				)
			)
			(pin power_in line
				(at 7.62 91.44 270)
				(length 5.08)
				(name "VDDUTMIC"
					(effects
						(font
							(size 1.27 1.27)
						)
					)
				)
				(number "139"
					(effects
						(font
							(size 1.27 1.27)
						)
					)
				)
			)
			(pin bidirectional line
				(at 30.48 2.54 180)
				(length 5.08)
				(name "PC31"
					(effects
						(font
							(size 1.27 1.27)
						)
					)
				)
				(number "14"
					(effects
						(font
							(size 1.27 1.27)
						)
					)
				)
			)
			(pin input line
				(at -30.48 -58.42 0)
				(length 5.08)
				(name "VBG"
					(effects
						(font
							(size 1.27 1.27)
						)
					)
				)
				(number "140"
					(effects
						(font
							(size 1.27 1.27)
						)
					)
				)
			)
			(pin bidirectional line
				(at -30.48 -22.86 0)
				(length 5.08)
				(name "PB8"
					(effects
						(font
							(size 1.27 1.27)
						)
					)
				)
				(number "141"
					(effects
						(font
							(size 1.27 1.27)
						)
					)
				)
			)
			(pin bidirectional line
				(at -30.48 -25.4 0)
				(length 5.08)
				(name "PB9"
					(effects
						(font
							(size 1.27 1.27)
						)
					)
				)
				(number "142"
					(effects
						(font
							(size 1.27 1.27)
						)
					)
				)
			)
			(pin power_in line
				(at 12.7 91.44 270)
				(length 5.08)
				(name "VDDPLLUSB"
					(effects
						(font
							(size 1.27 1.27)
						)
					)
				)
				(number "143"
					(effects
						(font
							(size 1.27 1.27)
						)
					)
				)
			)
			(pin bidirectional line
				(at -30.48 -30.48 0)
				(length 5.08)
				(name "PB13"
					(effects
						(font
							(size 1.27 1.27)
						)
					)
				)
				(number "144"
					(effects
						(font
							(size 1.27 1.27)
						)
					)
				)
			)
			(pin bidirectional line
				(at 30.48 5.08 180)
				(length 5.08)
				(name "PC30"
					(effects
						(font
							(size 1.27 1.27)
						)
					)
				)
				(number "15"
					(effects
						(font
							(size 1.27 1.27)
						)
					)
				)
			)
			(pin bidirectional line
				(at 30.48 7.62 180)
				(length 5.08)
				(name "PC29"
					(effects
						(font
							(size 1.27 1.27)
						)
					)
				)
				(number "16"
					(effects
						(font
							(size 1.27 1.27)
						)
					)
				)
			)
			(pin bidirectional line
				(at 30.48 50.8 180)
				(length 5.08)
				(name "PC12"
					(effects
						(font
							(size 1.27 1.27)
						)
					)
				)
				(number "17"
					(effects
						(font
							(size 1.27 1.27)
						)
					)
				)
			)
			(pin bidirectional line
				(at 30.48 43.18 180)
				(length 5.08)
				(name "PC15"
					(effects
						(font
							(size 1.27 1.27)
						)
					)
				)
				(number "18"
					(effects
						(font
							(size 1.27 1.27)
						)
					)
				)
			)
			(pin bidirectional line
				(at 30.48 48.26 180)
				(length 5.08)
				(name "PC13"
					(effects
						(font
							(size 1.27 1.27)
						)
					)
				)
				(number "19"
					(effects
						(font
							(size 1.27 1.27)
						)
					)
				)
			)
			(pin bidirectional line
				(at 30.48 -81.28 180)
				(length 5.08)
				(name "PD31"
					(effects
						(font
							(size 1.27 1.27)
						)
					)
				)
				(number "2"
					(effects
						(font
							(size 1.27 1.27)
						)
					)
				)
			)
			(pin bidirectional line
				(at -30.48 -5.08 0)
				(length 5.08)
				(name "PB1"
					(effects
						(font
							(size 1.27 1.27)
						)
					)
				)
				(number "20"
					(effects
						(font
							(size 1.27 1.27)
						)
					)
				)
			)
			(pin bidirectional line
				(at -30.48 -2.54 0)
				(length 5.08)
				(name "PB0"
					(effects
						(font
							(size 1.27 1.27)
						)
					)
				)
				(number "21"
					(effects
						(font
							(size 1.27 1.27)
						)
					)
				)
			)
			(pin bidirectional line
				(at -30.48 30.48 0)
				(length 5.08)
				(name "PA20"
					(effects
						(font
							(size 1.27 1.27)
						)
					)
				)
				(number "22"
					(effects
						(font
							(size 1.27 1.27)
						)
					)
				)
			)
			(pin bidirectional line
				(at -30.48 33.02 0)
				(length 5.08)
				(name "PA19"
					(effects
						(font
							(size 1.27 1.27)
						)
					)
				)
				(number "23"
					(effects
						(font
							(size 1.27 1.27)
						)
					)
				)
			)
			(pin bidirectional line
				(at -30.48 35.56 0)
				(length 5.08)
				(name "PA18"
					(effects
						(font
							(size 1.27 1.27)
						)
					)
				)
				(number "24"
					(effects
						(font
							(size 1.27 1.27)
						)
					)
				)
			)
			(pin bidirectional line
				(at -30.48 38.1 0)
				(length 5.08)
				(name "PA17"
					(effects
						(font
							(size 1.27 1.27)
						)
					)
				)
				(number "25"
					(effects
						(font
							(size 1.27 1.27)
						)
					)
				)
			)
			(pin bidirectional line
				(at -30.48 -7.62 0)
				(length 5.08)
				(name "PB2"
					(effects
						(font
							(size 1.27 1.27)
						)
					)
				)
				(number "26"
					(effects
						(font
							(size 1.27 1.27)
						)
					)
				)
			)
			(pin bidirectional line
				(at -30.48 -45.72 0)
				(length 5.08)
				(name "PE4"
					(effects
						(font
							(size 1.27 1.27)
						)
					)
				)
				(number "27"
					(effects
						(font
							(size 1.27 1.27)
						)
					)
				)
			)
			(pin bidirectional line
				(at -30.48 -48.26 0)
				(length 5.08)
				(name "PE5"
					(effects
						(font
							(size 1.27 1.27)
						)
					)
				)
				(number "28"
					(effects
						(font
							(size 1.27 1.27)
						)
					)
				)
			)
			(pin power_in line
				(at -10.16 91.44 270)
				(length 5.08)
				(name "VDDCORE"
					(effects
						(font
							(size 1.27 1.27)
						)
					)
				)
				(number "29"
					(effects
						(font
							(size 1.27 1.27)
						)
					)
				)
			)
			(pin power_in line
				(at 0 91.44 270)
				(length 5.08)
				(name "VDDOUT"
					(effects
						(font
							(size 1.27 1.27)
						)
					)
				)
				(number "3"
					(effects
						(font
							(size 1.27 1.27)
						)
					)
				)
			)
			(pin power_in line
				(at -5.08 91.44 270)
				(length 5.08)
				(name "VDDIO"
					(effects
						(font
							(size 1.27 1.27)
						)
					)
				)
				(number "30"
					(effects
						(font
							(size 1.27 1.27)
						)
					)
				)
			)
			(pin bidirectional line
				(at -30.48 -10.16 0)
				(length 5.08)
				(name "PB3"
					(effects
						(font
							(size 1.27 1.27)
						)
					)
				)
				(number "31"
					(effects
						(font
							(size 1.27 1.27)
						)
					)
				)
			)
			(pin bidirectional line
				(at -30.48 27.94 0)
				(length 5.08)
				(name "PA21"
					(effects
						(font
							(size 1.27 1.27)
						)
					)
				)
				(number "32"
					(effects
						(font
							(size 1.27 1.27)
						)
					)
				)
			)
			(pin passive line
				(at -10.16 91.44 270)
				(length 5.08) hide
				(name "VDDCORE"
					(effects
						(font
							(size 1.27 1.27)
						)
					)
				)
				(number "33"
					(effects
						(font
							(size 1.27 1.27)
						)
					)
				)
			)
			(pin bidirectional line
				(at 30.48 -78.74 180)
				(length 5.08)
				(name "PD30"
					(effects
						(font
							(size 1.27 1.27)
						)
					)
				)
				(number "34"
					(effects
						(font
							(size 1.27 1.27)
						)
					)
				)
			)
			(pin bidirectional line
				(at -30.48 63.5 0)
				(length 5.08)
				(name "PA7"
					(effects
						(font
							(size 1.27 1.27)
						)
					)
				)
				(number "35"
					(effects
						(font
							(size 1.27 1.27)
						)
					)
				)
			)
			(pin bidirectional line
				(at -30.48 60.96 0)
				(length 5.08)
				(name "PA8"
					(effects
						(font
							(size 1.27 1.27)
						)
					)
				)
				(number "36"
					(effects
						(font
							(size 1.27 1.27)
						)
					)
				)
			)
			(pin bidirectional line
				(at -30.48 25.4 0)
				(length 5.08)
				(name "PA22"
					(effects
						(font
							(size 1.27 1.27)
						)
					)
				)
				(number "37"
					(effects
						(font
							(size 1.27 1.27)
						)
					)
				)
			)
			(pin bidirectional line
				(at 30.48 78.74 180)
				(length 5.08)
				(name "PC1"
					(effects
						(font
							(size 1.27 1.27)
						)
					)
				)
				(number "38"
					(effects
						(font
							(size 1.27 1.27)
						)
					)
				)
			)
			(pin bidirectional line
				(at 30.48 76.2 180)
				(length 5.08)
				(name "PC2"
					(effects
						(font
							(size 1.27 1.27)
						)
					)
				)
				(number "39"
					(effects
						(font
							(size 1.27 1.27)
						)
					)
				)
			)
			(pin bidirectional line
				(at -30.48 -35.56 0)
				(length 5.08)
				(name "PE0"
					(effects
						(font
							(size 1.27 1.27)
						)
					)
				)
				(number "4"
					(effects
						(font
							(size 1.27 1.27)
						)
					)
				)
			)
			(pin bidirectional line
				(at 30.48 73.66 180)
				(length 5.08)
				(name "PC3"
					(effects
						(font
							(size 1.27 1.27)
						)
					)
				)
				(number "40"
					(effects
						(font
							(size 1.27 1.27)
						)
					)
				)
			)
			(pin bidirectional line
				(at 30.48 71.12 180)
				(length 5.08)
				(name "PC4"
					(effects
						(font
							(size 1.27 1.27)
						)
					)
				)
				(number "41"
					(effects
						(font
							(size 1.27 1.27)
						)
					)
				)
			)
			(pin bidirectional line
				(at -30.48 48.26 0)
				(length 5.08)
				(name "PA13"
					(effects
						(font
							(size 1.27 1.27)
						)
					)
				)
				(number "42"
					(effects
						(font
							(size 1.27 1.27)
						)
					)
				)
			)
			(pin passive line
				(at -5.08 91.44 270)
				(length 5.08) hide
				(name "VDDIO"
					(effects
						(font
							(size 1.27 1.27)
						)
					)
				)
				(number "43"
					(effects
						(font
							(size 1.27 1.27)
						)
					)
				)
			)
			(pin power_in line
				(at 0 -91.44 90)
				(length 5.08)
				(name "GND"
					(effects
						(font
							(size 1.27 1.27)
						)
					)
				)
				(number "44"
					(effects
						(font
							(size 1.27 1.27)
						)
					)
				)
			)
			(pin bidirectional line
				(at -30.48 40.64 0)
				(length 5.08)
				(name "PA16"
					(effects
						(font
							(size 1.27 1.27)
						)
					)
				)
				(number "45"
					(effects
						(font
							(size 1.27 1.27)
						)
					)
				)
			)
			(pin bidirectional line
				(at -30.48 22.86 0)
				(length 5.08)
				(name "PA23"
					(effects
						(font
							(size 1.27 1.27)
						)
					)
				)
				(number "46"
					(effects
						(font
							(size 1.27 1.27)
						)
					)
				)
			)
			(pin bidirectional line
				(at 30.48 -71.12 180)
				(length 5.08)
				(name "PD27"
					(effects
						(font
							(size 1.27 1.27)
						)
					)
				)
				(number "47"
					(effects
						(font
							(size 1.27 1.27)
						)
					)
				)
			)
			(pin bidirectional line
				(at 30.48 63.5 180)
				(length 5.08)
				(name "PC7"
					(effects
						(font
							(size 1.27 1.27)
						)
					)
				)
				(number "48"
					(effects
						(font
							(size 1.27 1.27)
						)
					)
				)
			)
			(pin bidirectional line
				(at -30.48 43.18 0)
				(length 5.08)
				(name "PA15"
					(effects
						(font
							(size 1.27 1.27)
						)
					)
				)
				(number "49"
					(effects
						(font
							(size 1.27 1.27)
						)
					)
				)
			)
			(pin power_in line
				(at 2.54 91.44 270)
				(length 5.08)
				(name "VDDIN"
					(effects
						(font
							(size 1.27 1.27)
						)
					)
				)
				(number "5"
					(effects
						(font
							(size 1.27 1.27)
						)
					)
				)
			)
			(pin passive line
				(at -10.16 91.44 270)
				(length 5.08) hide
				(name "VDDCORE"
					(effects
						(font
							(size 1.27 1.27)
						)
					)
				)
				(number "50"
					(effects
						(font
							(size 1.27 1.27)
						)
					)
				)
			)
			(pin bidirectional line
				(at -30.48 45.72 0)
				(length 5.08)
				(name "PA14"
					(effects
						(font
							(size 1.27 1.27)
						)
					)
				)
				(number "51"
					(effects
						(font
							(size 1.27 1.27)
						)
					)
				)
			)
			(pin bidirectional line
				(at 30.48 -66.04 180)
				(length 5.08)
				(name "PD25"
					(effects
						(font
							(size 1.27 1.27)
						)
					)
				)
				(number "52"
					(effects
						(font
							(size 1.27 1.27)
						)
					)
				)
			)
			(pin bidirectional line
				(at 30.48 -68.58 180)
				(length 5.08)
				(name "PD26"
					(effects
						(font
							(size 1.27 1.27)
						)
					)
				)
				(number "53"
					(effects
						(font
							(size 1.27 1.27)
						)
					)
				)
			)
			(pin bidirectional line
				(at 30.48 66.04 180)
				(length 5.08)
				(name "PC6"
					(effects
						(font
							(size 1.27 1.27)
						)
					)
				)
				(number "54"
					(effects
						(font
							(size 1.27 1.27)
						)
					)
				)
			)
			(pin bidirectional line
				(at 30.48 -63.5 180)
				(length 5.08)
				(name "PD24"
					(effects
						(font
							(size 1.27 1.27)
						)
					)
				)
				(number "55"
					(effects
						(font
							(size 1.27 1.27)
						)
					)
				)
			)
			(pin bidirectional line
				(at -30.48 20.32 0)
				(length 5.08)
				(name "PA24"
					(effects
						(font
							(size 1.27 1.27)
						)
					)
				)
				(number "56"
					(effects
						(font
							(size 1.27 1.27)
						)
					)
				)
			)
			(pin bidirectional line
				(at 30.48 -60.96 180)
				(length 5.08)
				(name "PD23"
					(effects
						(font
							(size 1.27 1.27)
						)
					)
				)
				(number "57"
					(effects
						(font
							(size 1.27 1.27)
						)
					)
				)
			)
			(pin bidirectional line
				(at 30.48 68.58 180)
				(length 5.08)
				(name "PC5"
					(effects
						(font
							(size 1.27 1.27)
						)
					)
				)
				(number "58"
					(effects
						(font
							(size 1.27 1.27)
						)
					)
				)
			)
			(pin bidirectional line
				(at -30.48 17.78 0)
				(length 5.08)
				(name "PA25"
					(effects
						(font
							(size 1.27 1.27)
						)
					)
				)
				(number "59"
					(effects
						(font
							(size 1.27 1.27)
						)
					)
				)
			)
			(pin bidirectional line
				(at -30.48 -38.1 0)
				(length 5.08)
				(name "PE1"
					(effects
						(font
							(size 1.27 1.27)
						)
					)
				)
				(number "6"
					(effects
						(font
							(size 1.27 1.27)
						)
					)
				)
			)
			(pin bidirectional line
				(at 30.48 -58.42 180)
				(length 5.08)
				(name "PD22"
					(effects
						(font
							(size 1.27 1.27)
						)
					)
				)
				(number "60"
					(effects
						(font
							(size 1.27 1.27)
						)
					)
				)
			)
			(pin passive line
				(at 0 -91.44 90)
				(length 5.08) hide
				(name "GND"
					(effects
						(font
							(size 1.27 1.27)
						)
					)
				)
				(number "61"
					(effects
						(font
							(size 1.27 1.27)
						)
					)
				)
			)
			(pin bidirectional line
				(at -30.48 15.24 0)
				(length 5.08)
				(name "PA26"
					(effects
						(font
							(size 1.27 1.27)
						)
					)
				)
				(number "62"
					(effects
						(font
							(size 1.27 1.27)
						)
					)
				)
			)
			(pin bidirectional line
				(at 30.48 -55.88 180)
				(length 5.08)
				(name "PD21"
					(effects
						(font
							(size 1.27 1.27)
						)
					)
				)
				(number "63"
					(effects
						(font
							(size 1.27 1.27)
						)
					)
				)
			)
			(pin bidirectional line
				(at -30.48 53.34 0)
				(length 5.08)
				(name "PA11"
					(effects
						(font
							(size 1.27 1.27)
						)
					)
				)
				(number "64"
					(effects
						(font
							(size 1.27 1.27)
						)
					)
				)
			)
			(pin bidirectional line
				(at 30.48 -53.34 180)
				(length 5.08)
				(name "PD20"
					(effects
						(font
							(size 1.27 1.27)
						)
					)
				)
				(number "65"
					(effects
						(font
							(size 1.27 1.27)
						)
					)
				)
			)
			(pin bidirectional line
				(at -30.48 55.88 0)
				(length 5.08)
				(name "PA10"
					(effects
						(font
							(size 1.27 1.27)
						)
					)
				)
				(number "66"
					(effects
						(font
							(size 1.27 1.27)
						)
					)
				)
			)
			(pin bidirectional line
				(at 30.48 -50.8 180)
				(length 5.08)
				(name "PD19"
					(effects
						(font
							(size 1.27 1.27)
						)
					)
				)
				(number "67"
					(effects
						(font
							(size 1.27 1.27)
						)
					)
				)
			)
			(pin bidirectional line
				(at -30.48 50.8 0)
				(length 5.08)
				(name "PA12"
					(effects
						(font
							(size 1.27 1.27)
						)
					)
				)
				(number "68"
					(effects
						(font
							(size 1.27 1.27)
						)
					)
				)
			)
			(pin bidirectional line
				(at 30.48 -48.26 180)
				(length 5.08)
				(name "PD18"
					(effects
						(font
							(size 1.27 1.27)
						)
					)
				)
				(number "69"
					(effects
						(font
							(size 1.27 1.27)
						)
					)
				)
			)
			(pin bidirectional line
				(at -30.48 -40.64 0)
				(length 5.08)
				(name "PE2"
					(effects
						(font
							(size 1.27 1.27)
						)
					)
				)
				(number "7"
					(effects
						(font
							(size 1.27 1.27)
						)
					)
				)
			)
			(pin bidirectional line
				(at -30.48 12.7 0)
				(length 5.08)
				(name "PA27"
					(effects
						(font
							(size 1.27 1.27)
						)
					)
				)
				(number "70"
					(effects
						(font
							(size 1.27 1.27)
						)
					)
				)
			)
			(pin bidirectional line
				(at 30.48 -73.66 180)
				(length 5.08)
				(name "PD28"
					(effects
						(font
							(size 1.27 1.27)
						)
					)
				)
				(number "71"
					(effects
						(font
							(size 1.27 1.27)
						)
					)
				)
			)
			(pin passive line
				(at -5.08 91.44 270)
				(length 5.08) hide
				(name "VDDIO"
					(effects
						(font
							(size 1.27 1.27)
						)
					)
				)
				(number "72"
					(effects
						(font
							(size 1.27 1.27)
						)
					)
				)
			)
			(pin bidirectional line
				(at -30.48 68.58 0)
				(length 5.08)
				(name "PA5"
					(effects
						(font
							(size 1.27 1.27)
						)
					)
				)
				(number "73"
					(effects
						(font
							(size 1.27 1.27)
						)
					)
				)
			)
			(pin bidirectional line
				(at 30.48 -45.72 180)
				(length 5.08)
				(name "PD17"
					(effects
						(font
							(size 1.27 1.27)
						)
					)
				)
				(number "74"
					(effects
						(font
							(size 1.27 1.27)
						)
					)
				)
			)
			(pin bidirectional line
				(at -30.48 58.42 0)
				(length 5.08)
				(name "PA9"
					(effects
						(font
							(size 1.27 1.27)
						)
					)
				)
				(number "75"
					(effects
						(font
							(size 1.27 1.27)
						)
					)
				)
			)
			(pin bidirectional line
				(at 30.48 10.16 180)
				(length 5.08)
				(name "PC28"
					(effects
						(font
							(size 1.27 1.27)
						)
					)
				)
				(number "76"
					(effects
						(font
							(size 1.27 1.27)
						)
					)
				)
			)
			(pin bidirectional line
				(at -30.48 71.12 0)
				(length 5.08)
				(name "PA4"
					(effects
						(font
							(size 1.27 1.27)
						)
					)
				)
				(number "77"
					(effects
						(font
							(size 1.27 1.27)
						)
					)
				)
			)
			(pin bidirectional line
				(at 30.48 -43.18 180)
				(length 5.08)
				(name "PD16"
					(effects
						(font
							(size 1.27 1.27)
						)
					)
				)
				(number "78"
					(effects
						(font
							(size 1.27 1.27)
						)
					)
				)
			)
			(pin bidirectional line
				(at -30.48 -17.78 0)
				(length 5.08)
				(name "PB6"
					(effects
						(font
							(size 1.27 1.27)
						)
					)
				)
				(number "79"
					(effects
						(font
							(size 1.27 1.27)
						)
					)
				)
			)
			(pin bidirectional line
				(at -30.48 -78.74 0)
				(length 5.08)
				(name "VREFN"
					(effects
						(font
							(size 1.27 1.27)
						)
					)
				)
				(number "8"
					(effects
						(font
							(size 1.27 1.27)
						)
					)
				)
			)
			(pin passive line
				(at -5.08 91.44 270)
				(length 5.08) hide
				(name "VDDIO"
					(effects
						(font
							(size 1.27 1.27)
						)
					)
				)
				(number "80"
					(effects
						(font
							(size 1.27 1.27)
						)
					)
				)
			)
			(pin passive line
				(at -10.16 91.44 270)
				(length 5.08) hide
				(name "VDDCORE"
					(effects
						(font
							(size 1.27 1.27)
						)
					)
				)
				(number "81"
					(effects
						(font
							(size 1.27 1.27)
						)
					)
				)
			)
			(pin bidirectional line
				(at 30.48 60.96 180)
				(length 5.08)
				(name "PC8"
					(effects
						(font
							(size 1.27 1.27)
						)
					)
				)
				(number "82"
					(effects
						(font
							(size 1.27 1.27)
						)
					)
				)
			)
			(pin bidirectional line
				(at -30.48 -63.5 0)
				(length 5.08)
				(name "NRST"
					(effects
						(font
							(size 1.27 1.27)
						)
					)
				)
				(number "83"
					(effects
						(font
							(size 1.27 1.27)
						)
					)
				)
			)
			(pin bidirectional line
				(at 30.48 -38.1 180)
				(length 5.08)
				(name "PD14"
					(effects
						(font
							(size 1.27 1.27)
						)
					)
				)
				(number "84"
					(effects
						(font
							(size 1.27 1.27)
						)
					)
				)
			)
			(pin input line
				(at -30.48 -66.04 0)
				(length 5.08)
				(name "TST"
					(effects
						(font
							(size 1.27 1.27)
						)
					)
				)
				(number "85"
					(effects
						(font
							(size 1.27 1.27)
						)
					)
				)
			)
			(pin bidirectional line
				(at 30.48 58.42 180)
				(length 5.08)
				(name "PC9"
					(effects
						(font
							(size 1.27 1.27)
						)
					)
				)
				(number "86"
					(effects
						(font
							(size 1.27 1.27)
						)
					)
				)
			)
			(pin bidirectional line
				(at -30.48 -27.94 0)
				(length 5.08)
				(name "PB12"
					(effects
						(font
							(size 1.27 1.27)
						)
					)
				)
				(number "87"
					(effects
						(font
							(size 1.27 1.27)
						)
					)
				)
			)
			(pin bidirectional line
				(at 30.48 -35.56 180)
				(length 5.08)
				(name "PD13"
					(effects
						(font
							(size 1.27 1.27)
						)
					)
				)
				(number "88"
					(effects
						(font
							(size 1.27 1.27)
						)
					)
				)
			)
			(pin bidirectional line
				(at -30.48 -20.32 0)
				(length 5.08)
				(name "PB7"
					(effects
						(font
							(size 1.27 1.27)
						)
					)
				)
				(number "89"
					(effects
						(font
							(size 1.27 1.27)
						)
					)
				)
			)
			(pin input line
				(at -30.48 -76.2 0)
				(length 5.08)
				(name "VREFP"
					(effects
						(font
							(size 1.27 1.27)
						)
					)
				)
				(number "9"
					(effects
						(font
							(size 1.27 1.27)
						)
					)
				)
			)
			(pin bidirectional line
				(at 30.48 55.88 180)
				(length 5.08)
				(name "PC10"
					(effects
						(font
							(size 1.27 1.27)
						)
					)
				)
				(number "90"
					(effects
						(font
							(size 1.27 1.27)
						)
					)
				)
			)
			(pin bidirectional line
				(at -30.48 73.66 0)
				(length 5.08)
				(name "PA3"
					(effects
						(font
							(size 1.27 1.27)
						)
					)
				)
				(number "91"
					(effects
						(font
							(size 1.27 1.27)
						)
					)
				)
			)
			(pin bidirectional line
				(at 30.48 -33.02 180)
				(length 5.08)
				(name "PD12"
					(effects
						(font
							(size 1.27 1.27)
						)
					)
				)
				(number "92"
					(effects
						(font
							(size 1.27 1.27)
						)
					)
				)
			)
			(pin bidirectional line
				(at -30.48 76.2 0)
				(length 5.08)
				(name "PA2"
					(effects
						(font
							(size 1.27 1.27)
						)
					)
				)
				(number "93"
					(effects
						(font
							(size 1.27 1.27)
						)
					)
				)
			)
			(pin bidirectional line
				(at 30.48 53.34 180)
				(length 5.08)
				(name "PC11"
					(effects
						(font
							(size 1.27 1.27)
						)
					)
				)
				(number "94"
					(effects
						(font
							(size 1.27 1.27)
						)
					)
				)
			)
			(pin passive line
				(at 0 -91.44 90)
				(length 5.08) hide
				(name "GND"
					(effects
						(font
							(size 1.27 1.27)
						)
					)
				)
				(number "95"
					(effects
						(font
							(size 1.27 1.27)
						)
					)
				)
			)
			(pin passive line
				(at -5.08 91.44 270)
				(length 5.08) hide
				(name "VDDIO"
					(effects
						(font
							(size 1.27 1.27)
						)
					)
				)
				(number "96"
					(effects
						(font
							(size 1.27 1.27)
						)
					)
				)
			)
			(pin bidirectional line
				(at 30.48 45.72 180)
				(length 5.08)
				(name "PC14"
					(effects
						(font
							(size 1.27 1.27)
						)
					)
				)
				(number "97"
					(effects
						(font
							(size 1.27 1.27)
						)
					)
				)
			)
			(pin bidirectional line
				(at 30.48 -30.48 180)
				(length 5.08)
				(name "PD11"
					(effects
						(font
							(size 1.27 1.27)
						)
					)
				)
				(number "98"
					(effects
						(font
							(size 1.27 1.27)
						)
					)
				)
			)
			(pin bidirectional line
				(at -30.48 78.74 0)
				(length 5.08)
				(name "PA1"
					(effects
						(font
							(size 1.27 1.27)
						)
					)
				)
				(number "99"
					(effects
						(font
							(size 1.27 1.27)
						)
					)
				)
			)
		)
	)
	(symbol "ATSAMV71Q19B-A"
		(extends "ATSAMV71Q21B-A")
		(property "Reference" "U"
			(at -22.86 88.9 0)
			(effects
				(font
					(size 1.27 1.27)
				)
			)
		)
		(property "Value" "ATSAMV71Q19B-A"
			(at -12.7 -88.9 0)
			(effects
				(font
					(size 1.27 1.27)
				)
			)
		)
		(property "Footprint" "Package_QFP:LQFP-144_20x20mm_P0.5mm"
			(at 35.56 88.9 0)
			(effects
				(font
					(size 1.27 1.27)
				)
				(hide yes)
			)
		)
		(property "Datasheet" "http://ww1.microchip.com/downloads/en/DeviceDoc/SAM-E70-S70-V70-V71-Family-Data-Sheet-DS60001527D.pdf"
			(at 0 0 0)
			(effects
				(font
					(size 1.27 1.27)
				)
				(hide yes)
			)
		)
		(property "Description" "SAM V71 Microchip SMART ARM Cortex-M7-based MCU, 512K Flash, 256K SRAM, LQFP-144"
			(at 0 0 0)
			(effects
				(font
					(size 1.27 1.27)
				)
				(hide yes)
			)
		)
		(property "ki_keywords" "32-bit ARM Cortex-M7 MCU Microcontroller"
			(at 0 0 0)
			(effects
				(font
					(size 1.27 1.27)
				)
				(hide yes)
			)
		)
		(property "ki_fp_filters" "LQFP*20x20mm*P0.5mm*"
			(at 0 0 0)
			(effects
				(font
					(size 1.27 1.27)
				)
				(hide yes)
			)
		)
	)
	(symbol "ATSAMV71Q20B-A"
		(extends "ATSAMV71Q21B-A")
		(property "Reference" "U"
			(at -22.86 88.9 0)
			(effects
				(font
					(size 1.27 1.27)
				)
			)
		)
		(property "Value" "ATSAMV71Q20B-A"
			(at -12.7 -88.9 0)
			(effects
				(font
					(size 1.27 1.27)
				)
			)
		)
		(property "Footprint" "Package_QFP:LQFP-144_20x20mm_P0.5mm"
			(at 35.56 88.9 0)
			(effects
				(font
					(size 1.27 1.27)
				)
				(hide yes)
			)
		)
		(property "Datasheet" "http://ww1.microchip.com/downloads/en/DeviceDoc/SAM-E70-S70-V70-V71-Family-Data-Sheet-DS60001527D.pdf"
			(at 0 0 0)
			(effects
				(font
					(size 1.27 1.27)
				)
				(hide yes)
			)
		)
		(property "Description" "SAM V71 Microchip SMART ARM Cortex-M7-based MCU, 1024K Flash, 384K SRAM, LQFP-144"
			(at 0 0 0)
			(effects
				(font
					(size 1.27 1.27)
				)
				(hide yes)
			)
		)
		(property "ki_keywords" "32-bit ARM Cortex-M7 MCU Microcontroller"
			(at 0 0 0)
			(effects
				(font
					(size 1.27 1.27)
				)
				(hide yes)
			)
		)
		(property "ki_fp_filters" "LQFP*20x20mm*P0.5mm*"
			(at 0 0 0)
			(effects
				(font
					(size 1.27 1.27)
				)
				(hide yes)
			)
		)
	)
)